[gd_scene load_steps=2 format=2]

[ext_resource path="res://img/menu3.png" type="Texture" id=1]

[node name="Node2D" type="Node2D"]

[node name="Sprite" type="Sprite" parent="."]
position = Vector2( 480.683, 360.76 )
texture = ExtResource( 1 )

