[gd_resource type="DynamicFont" load_steps=2 format=2]

[ext_resource path="res://fonts/comfortaa/Comfortaa-Light.ttf" type="DynamicFontData" id=1]

[resource]
size = 25
font_data = ExtResource( 1 )

